%YAML 1.1
%TAG !u! tag:unity3d.com,2011:
--- !u!114 &11400000
MonoBehaviour:
  m_ObjectHideFlags: 0
  m_PrefabParentObject: {fileID: 0}
  m_PrefabInternal: {fileID: 0}
  m_GameObject: {fileID: 0}
  m_Enabled: 1
  m_EditorHideFlags: 0
  m_Script: {fileID: 11500000, guid: 56b9c240faa0a6e4eb0f5d69778e3bdc, type: 3}
  m_Name: Color
  m_EditorClassIdentifier: 
  mainColor:
    r: 0.986207
    g: 0
    b: 1
    a: 1
